{
    "defaultSeverity": "warn",
    "extends": [
        "tslint-config-standard",
        "tslint-react"
    ],
    "jsRules": {},
    "rules": {
        "no-unnecessary-type-assertion": true,
        "array-type": [
            true,
            "array"
        ],
        "ban": [
            true,
            "alert"
        ],
        "space-before-function-paren": [
            false
        ],
        "completed-docs": [
            true,
            {
                "classes": {
                    "visibilities": [
                        "exported"
                    ]
                },
                "functions": {
                    "privacies": [
                        "public"
                    ],
                    "visibilities": [
                        "exported"
                    ]
                },
                "namespaces": {
                    "visibilities": [
                        "exported"
                    ]
                },
                "methods": {
                    "locations": [
                        "static"
                    ],
                    "privacies": [
                        "public"
                    ]
                }
            }
        ],
        "indent": [
            true,
            "tab",
            4
        ],
        "ter-indent": [
            true,
            4,
            {
                "SwitchCase": 1
            }
        ],
        "boolean-trivia": true,
        "class-name": true,
        "no-double-space": true,
        "prefer-const": true,
        "ban-types": {
            "options": [
                [
                    "Object",
                    "Avoid using the `Object` type. Did you mean `object`?"
                ],
                [
                    "Function",
                    "Avoid using the `Function` type. Prefer a specific function type, like `() => void`, or use `ts.AnyFunction`."
                ],
                [
                    "Boolean",
                    "Avoid using the `Boolean` type. Did you mean `boolean`?"
                ],
                [
                    "Number",
                    "Avoid using the `Number` type. Did you mean `number`?"
                ],
                [
                    "String",
                    "Avoid using the `String` type. Did you mean `string`?"
                ]
            ]
        },
        "semicolon": {
            "severity": "off"
        },
        "prefer-object-spread": true,
        "no-redundant-jsdoc": true,
        "unnecessary-bind": true,
        "unnecessary-constructor": true,
        "max-line-length": [
            true,
            250
        ],
        "object-literal-sort-keys": false,
        "no-object-literal-type-assertion": false,
        "no-empty-interface": false,
        "no-submodule-imports": false,
        "no-implicit-dependencies": false,
        "no-empty": false,
        "jsdoc-format": true,
        "no-use-before-declare": true,
        "jsx-no-lambda": false,
        "jsx-alignment": false,
        "jsx-no-multiline-js": false,
        "await-promise": true,
        "return-undefined": false,
        "no-floating-promises": true,
        "no-unnecessary-qualifier": false,
        "strict-type-predicates": true,
        "no-unused-variable": true
    },
    "rulesDirectory": []
}