<svg xmlns="http://www.w3.org/2000/svg" width="21" height="27" viewBox="0 0 21 27">
    <g fill="none" fill-rule="evenodd" stroke="#FFF" opacity=".5" transform="translate(.5 1.318)">
        <rect width="19" height="19" x=".5" y="5.5" rx="9.5"/>
        <circle cx="10" cy="15" r="2"/>
        <path d="M5 6.5V4.89C5 2.194 7.243 0 10 0s5 2.194 5 4.89V6.5"/>
    </g>
</svg>
